…
``` r
diamonds %>%
    filter(z < 1 | z > 9) %>%
    select(x, y, z, price, carat, cut) %>%
    arrange(desc(z))
```

    ## # A tibble: 21 x 6
    ##        x     y     z price carat cut      
    ##    <dbl> <dbl> <dbl> <int> <dbl> <ord>    
    ##  1  5.12  5.15  31.8  1970  0.51 Very Good
    ##  2  6.55  6.48   0    3142  1    Premium  
    ##  3  6.66  6.6    0    3167  1.01 Premium  
    ##  4  6.5   6.47   0    3696  1.1  Premium  
    ##  5  6.5   6.47   0    3837  1.01 Premium  
    ##  6  7.15  7.04   0    4731  1.5  Good     
    ##  7  0     6.62   0    4954  1.07 Ideal    
    ##  8  0     0      0    5139  1    Very Good
    ##  9  6.88  6.83   0    5564  1.15 Ideal    
    ## 10  0     0      0    6381  1.14 Fair     
    ## # ... with 11 more rows
…
